10 Feature Selection and Cluster Analysis | ANALYSIS OF SINGLE CELL RNA-SEQ DATA
…
## Calculating cluster 9

## Calculating cluster 10

## Calculating cluster 11

## Calculating cluster 12

## Calculating cluster 13

## Calculating cluster 14

nsclc.markers %>% group_by(cluster) %>% top_n(2, avg_logFC)

## # A tibble: 30 x 7
## # Groups:   cluster [15]
##        p_val avg_logFC pct.1 pct.2 p_val_adj cluster gene 
##        <dbl>     <dbl> <dbl> <dbl>     <dbl> <fct>   <chr>
##  1 0.            1.42  0.98  0.189 0.        0       MS4A1
##  2 0.            1.36  0.981 0.219 0.        0       CD79A
##  3 0.            1.78  0.913 0.201 0.        1       IL7R 
##  4 1.48e-245     1.20  0.568 0.11  2.99e-241 1       KLRB1
##  5 7.48e-218     1.09  0.921 0.321 1.51e-213 2       MS4A1
##  6 1.51e-189     0.961 0.907 0.35  3.05e-185 2       CD79A
##  7 5.82e-263     2.00  0.468 0.054 1.18e-258 3       GZMK 
##  8 2.59e-236     1.81  0.692 0.178 5.24e-232 3       CCL5 
##  9 0.            3.39  0.909 0.128 0.        4       KRT17
## 10 0.            3.37  0.834 0.047 0.        4       SLPI 
## # … with 20 more rows
…
